module gitlab.com/jhsc/docker-client

go 1.14

require (
	github.com/fsouza/go-dockerclient v1.6.5
	github.com/go-chi/chi v4.1.2+incompatible
	github.com/fsouza/go-dockerclient v1.6.5
	github.com/hashicorp/hcl v1.0.0
	github.com/kelseyhightower/envconfig v1.4.0
	github.com/go-chi/chi v4.1.2+incompatible
)
